<?xml version="1.0" encoding="utf-8"?>
<!-- Generator: Adobe Illustrator 16.0.0, SVG Export Plug-In . SVG Version: 6.00 Build 0)  -->
<!DOCTYPE svg PUBLIC "-//W3C//DTD SVG 1.1//EN" "http://www.w3.org/Graphics/SVG/1.1/DTD/svg11.dtd">
<svg version="1.1" id="Layer_1" xmlns="http://www.w3.org/2000/svg" xmlns:xlink="http://www.w3.org/1999/xlink" x="0px" y="0px"
	 width="60px" height="60px" viewBox="0 0 60 60" enable-background="new 0 0 60 60" xml:space="preserve">
<g>
	<polygon fill="#414042" points="29.998,38.056 13.496,25.461 13.496,45.893 46.504,45.893 46.504,25.461 	"/>
	<polygon fill="#414042" points="21.24,23.962 38.76,23.962 38.76,30.122 46.182,24.458 29.998,12.107 13.817,24.458 21.24,30.123 	
		"/>
	<g>
		<polygon fill="#414042" points="37.768,24.954 22.232,24.954 22.232,30.881 29.998,36.808 37.768,30.879 		"/>
	</g>
</g>
</svg>
